[game]
{
    [allyteam1]
    {
        startrectleft=0.63;
        startrectright=1;
        startrectbottom=0.37;
        numallies=0;
        startrecttop=0;
    }
    [ai1]
    {
        team=1;
        isfromdemo=0;
        host=0;
        name=SimpleDefenderAI(1);
        version=<not-versioned>;
        shortname=SimpleDefenderAI;
    }
    [team0]
    {
        allyteam=0;
        teamleader=0;
        rgbcolor=0.99609375 0.546875 0;
        side=Armada;
        handicap=0;
    }
    [allyteam0]
    {
        startrectleft=0;
        startrectright=0.37;
        startrectbottom=1;
        numallies=0;
        startrecttop=0.63;
    }
    [modoptions]
    {
        MinSpeed=2000;
        MaxSpeed=2000;
    }
    [player0]
    {
        rank=0;
        team=0;
        spectator=1;
        name=Player;
        isfromdemo=0;
    }
    [ai0]
    {
        team=0;
        isfromdemo=0;
        host=0;
        name=CRustAIcean0.1.0(1);
        version=0.1.0;
        shortname=CRustAIcean;
    }
    [team1]
    {
        allyteam=1;
        teamleader=0;
        rgbcolor=0.99609375 0.546875 0;
        side=Armada;
        handicap=0;
    }
    ishost=1;
    hostip=127.0.0.1;
    numusers=3;
    startpostype=2;
    gametype=Beyond All Reason test-25640-96fc73f;
    mapname=Small_Supreme_Battlefield_V3;
    myplayername=Player;
    numplayers=1;
    gamestartdelay=5;
    nohelperais=0;
    hostport=0;
}
